iaph2023.github.io - Mini Project 2
…
    Published

      October 2, 2024

This analysis uses data from the Netflix Titles Data Source, which is available through the TidyTuesday github repository.

library(tidyverse)

tuesdata <- tidytuesdayR::tt_load('2021-04-20')

netflix <- tuesdata$netflix

netflix

# A tibble: 7,787 × 12
   show_id type    title director   cast  country date_added release_year rating
   <chr>   <chr>   <chr> <chr>      <chr> <chr>   <chr>             <dbl> <chr> 
 1 s1      TV Show 3%    <NA>       João… Brazil  August 14…         2020 TV-MA 
 2 s2      Movie   7:19  Jorge Mic… Demi… Mexico  December …         2016 TV-MA 
 3 s3      Movie   23:59 Gilbert C… Tedd… Singap… December …         2011 R     
 4 s4      Movie   9     Shane Ack… Elij… United… November …         2009 PG-13 
 5 s5      Movie   21    Robert Lu… Jim … United… January 1…         2008 PG-13 
 6 s6      TV Show 46    Serdar Ak… Erda… Turkey  July 1, 2…         2016 TV-MA 
 7 s7      Movie   122   Yasir Al … Amin… Egypt   June 1, 2…         2019 TV-MA 
 8 s8      Movie   187   Kevin Rey… Samu… United… November …         1997 R     
 9 s9      Movie   706   Shravan K… Divy… India   April 1, …         2019 TV-14 
10 s10     Movie   1920  Vikram Bh… Rajn… India   December …         2008 TV-MA 
# ℹ 7,777 more rows
# ℹ 3 more variables: duration <chr>, listed_in <chr>, description <chr>
…
netflix_type_count

# A tibble: 2 × 2
  type        n
  <chr>   <int>
1 Movie    5377
2 TV Show  2410

# Distribution of content release year
netflix_year_count <- netflix |>
  count(release_year) |>
  arrange(desc(n))
netflix_year_count

# A tibble: 73 × 2
   release_year     n
          <dbl> <int>
 1         2018  1121
 2         2017  1012
 3         2019   996
 4         2016   882
 5         2020   868
 6         2015   541
 7         2014   334
 8         2013   267
 9         2012   219
10         2010   173
# ℹ 63 more rows
…
# A tibble: 1 × 1
  count
  <int>
1   175

Used str functions str_detect() and str_to_lower() to look for a popular word. Used regular expression “love” to look for the word love in movie and TV titles.

# Titles containing the words "life", "world", or "death"
keywords_titles <- netflix |>
  filter(str_detect(str_to_lower(title), "life|world|death"))

keywords_titles

# A tibble: 179 × 12
   show_id type    title   director cast  country date_added release_year rating
   <chr>   <chr>   <chr>   <chr>    <chr> <chr>   <chr>             <dbl> <chr> 
 1 s150    Movie   A Beau… Andrew … Qi S… China,… December …         2011 TV-14 
 2 s195    Movie   A Life… Francis… <NA>  Argent… March 20,…         2020 TV-14 
 3 s310    Movie   Addict… Thierry… Anto… France  June 12, …         2014 TV-14 
 4 s325    TV Show After … <NA>     Rick… United… April 24,…         2020 TV-MA 
 5 s379    Movie   Alex F… Alex Dí… Alex… Mexico  January 2…         2020 TV-MA 
 6 s399    TV Show Alien … <NA>     <NA>  United… December …         2020 TV-PG 
 7 s421    Movie   All th… Yibrán … Háns… Mexico  January 3…         2020 TV-14 
 8 s530    Movie   Animal… Han Yan  Li Y… China   September…         2018 TV-MA 
 9 s544    TV Show Anothe… <NA>     Kate… United… July 25, …         2019 TV-MA 
10 s559    TV Show Apache… <NA>     Balt… Argent… August 16…         2019 TV-MA 
# ℹ 169 more rows
# ℹ 3 more variables: duration <chr>, listed_in <chr>, description <chr>
…
